<?xml version="1.0" encoding="UTF-8"?>
<!-- Do not edit this file with editors other than draw.io -->
<!DOCTYPE svg PUBLIC "-//W3C//DTD SVG 1.1//EN" "http://www.w3.org/Graphics/SVG/1.1/DTD/svg11.dtd">
<svg xmlns="http://www.w3.org/2000/svg" xmlns:xlink="http://www.w3.org/1999/xlink" version="1.1" width="840px" height="214px" viewBox="-0.5 -0.5 840 214" content="&lt;mxfile host=&quot;app.diagrams.net&quot; modified=&quot;2024-06-20T05:16:09.598Z&quot; agent=&quot;Mozilla/5.0 (Windows NT 10.0; Win64; x64; rv:127.0) Gecko/20100101 Firefox/127.0&quot; etag=&quot;mrkksIrZtAUev9R9mXGc&quot; version=&quot;24.5.5&quot; type=&quot;device&quot;&gt;&#xA;  &lt;diagram name=&quot;Page-1&quot; id=&quot;28qUhVRo9375TnipV4Mt&quot;&gt;&#xA;    &lt;mxGraphModel dx=&quot;1050&quot; dy=&quot;576&quot; grid=&quot;1&quot; gridSize=&quot;10&quot; guides=&quot;1&quot; tooltips=&quot;1&quot; connect=&quot;1&quot; arrows=&quot;1&quot; fold=&quot;1&quot; page=&quot;1&quot; pageScale=&quot;1&quot; pageWidth=&quot;827&quot; pageHeight=&quot;1169&quot; math=&quot;0&quot; shadow=&quot;0&quot;&gt;&#xA;      &lt;root&gt;&#xA;        &lt;mxCell id=&quot;0&quot; /&gt;&#xA;        &lt;mxCell id=&quot;1&quot; parent=&quot;0&quot; /&gt;&#xA;        &lt;mxCell id=&quot;3wBLp1z6s1prBi4cRfZP-1&quot; value=&quot;&amp;lt;h1 style=&amp;quot;margin-top: 0px;&amp;quot;&amp;gt;Texte original&amp;lt;br&amp;gt;&amp;lt;/h1&amp;gt;&amp;lt;p&amp;gt;Lorem ipsum dolor sit amet, consectetur adipisicing elit, sed do eiusmod tempor incididunt ut labore et dolore magna aliqua.&amp;lt;/p&amp;gt;&quot; style=&quot;text;html=1;whiteSpace=wrap;overflow=hidden;rounded=0;&quot; vertex=&quot;1&quot; parent=&quot;1&quot;&gt;&#xA;          &lt;mxGeometry x=&quot;40&quot; y=&quot;240&quot; width=&quot;200&quot; height=&quot;120&quot; as=&quot;geometry&quot; /&gt;&#xA;        &lt;/mxCell&gt;&#xA;        &lt;mxCell id=&quot;3wBLp1z6s1prBi4cRfZP-2&quot; value=&quot;&amp;lt;h1 style=&amp;quot;margin-top: 0px;&amp;quot;&amp;gt;Texte chiffré&amp;lt;br&amp;gt;&amp;lt;/h1&amp;gt;&amp;lt;p&amp;gt;Gpsfnojqtvnoepmpsotjuobnfuaodp otfdufuvsobejqjtjdjohofmjuaotfeoepo fjvtnpeoufnqpsojodjejevouovuombc psfofuoepmpsfonbhobobmjrvbc&amp;#39;&amp;lt;br&amp;gt;&amp;lt;/p&amp;gt;&quot; style=&quot;text;html=1;whiteSpace=wrap;overflow=hidden;rounded=0;&quot; vertex=&quot;1&quot; parent=&quot;1&quot;&gt;&#xA;          &lt;mxGeometry x=&quot;368&quot; y=&quot;240&quot; width=&quot;200&quot; height=&quot;120&quot; as=&quot;geometry&quot; /&gt;&#xA;        &lt;/mxCell&gt;&#xA;        &lt;mxCell id=&quot;3wBLp1z6s1prBi4cRfZP-3&quot; value=&quot;&amp;lt;h1 style=&amp;quot;margin-top: 0px;&amp;quot;&amp;gt;Texte déchiffré&amp;lt;/h1&amp;gt;&amp;lt;h1 style=&amp;quot;margin-top: 0px;&amp;quot;&amp;gt;&amp;lt;/h1&amp;gt;&amp;lt;p&amp;gt;Lorem ipsum dolor sit amet, consectetur adipisicing elit, sed do eiusmod tempor incididunt ut labore et dolore magna aliqua.&amp;lt;/p&amp;gt;&quot; style=&quot;text;html=1;whiteSpace=wrap;overflow=hidden;rounded=0;&quot; vertex=&quot;1&quot; parent=&quot;1&quot;&gt;&#xA;          &lt;mxGeometry x=&quot;680&quot; y=&quot;240&quot; width=&quot;200&quot; height=&quot;120&quot; as=&quot;geometry&quot; /&gt;&#xA;        &lt;/mxCell&gt;&#xA;        &lt;mxCell id=&quot;3wBLp1z6s1prBi4cRfZP-4&quot; value=&quot;&quot; style=&quot;shape=flexArrow;endArrow=classic;html=1;rounded=0;exitX=1;exitY=0.5;exitDx=0;exitDy=0;fillColor=#dae8fc;strokeColor=#6c8ebf;&quot; edge=&quot;1&quot; parent=&quot;1&quot; source=&quot;3wBLp1z6s1prBi4cRfZP-1&quot;&gt;&#xA;          &lt;mxGeometry width=&quot;50&quot; height=&quot;50&quot; relative=&quot;1&quot; as=&quot;geometry&quot;&gt;&#xA;            &lt;mxPoint x=&quot;450&quot; y=&quot;320&quot; as=&quot;sourcePoint&quot; /&gt;&#xA;            &lt;mxPoint x=&quot;360&quot; y=&quot;300&quot; as=&quot;targetPoint&quot; /&gt;&#xA;          &lt;/mxGeometry&gt;&#xA;        &lt;/mxCell&gt;&#xA;        &lt;mxCell id=&quot;3wBLp1z6s1prBi4cRfZP-5&quot; value=&quot;&quot; style=&quot;shape=flexArrow;endArrow=classic;html=1;rounded=0;exitX=1;exitY=0.5;exitDx=0;exitDy=0;entryX=0;entryY=0.5;entryDx=0;entryDy=0;fillColor=#dae8fc;strokeColor=#6c8ebf;&quot; edge=&quot;1&quot; parent=&quot;1&quot;&gt;&#xA;          &lt;mxGeometry width=&quot;50&quot; height=&quot;50&quot; relative=&quot;1&quot; as=&quot;geometry&quot;&gt;&#xA;            &lt;mxPoint x=&quot;560&quot; y=&quot;299.5&quot; as=&quot;sourcePoint&quot; /&gt;&#xA;            &lt;mxPoint x=&quot;680&quot; y=&quot;299.5&quot; as=&quot;targetPoint&quot; /&gt;&#xA;          &lt;/mxGeometry&gt;&#xA;        &lt;/mxCell&gt;&#xA;        &lt;mxCell id=&quot;3wBLp1z6s1prBi4cRfZP-6&quot; value=&quot;&amp;lt;b&amp;gt;&amp;lt;font style=&amp;quot;font-size: 24px;&amp;quot; face=&amp;quot;Courier New&amp;quot;&amp;gt;Clé identique&amp;lt;/font&amp;gt;&amp;lt;/b&amp;gt;&quot; style=&quot;rounded=1;whiteSpace=wrap;html=1;fillColor=#fff2cc;strokeColor=#00B000;strokeWidth=2;&quot; vertex=&quot;1&quot; parent=&quot;1&quot;&gt;&#xA;          &lt;mxGeometry x=&quot;359&quot; y=&quot;150&quot; width=&quot;200&quot; height=&quot;60&quot; as=&quot;geometry&quot; /&gt;&#xA;        &lt;/mxCell&gt;&#xA;        &lt;mxCell id=&quot;3wBLp1z6s1prBi4cRfZP-8&quot; value=&quot;&quot; style=&quot;image;sketch=0;aspect=fixed;html=1;points=[];align=center;fontSize=12;image=img/lib/mscae/Key_Vaults.svg;&quot; vertex=&quot;1&quot; parent=&quot;1&quot;&gt;&#xA;          &lt;mxGeometry x=&quot;261.4&quot; y=&quot;150&quot; width=&quot;67.2&quot; height=&quot;70&quot; as=&quot;geometry&quot; /&gt;&#xA;        &lt;/mxCell&gt;&#xA;        &lt;mxCell id=&quot;3wBLp1z6s1prBi4cRfZP-9&quot; value=&quot;&quot; style=&quot;image;sketch=0;aspect=fixed;html=1;points=[];align=center;fontSize=12;image=img/lib/mscae/Key_Vaults.svg;&quot; vertex=&quot;1&quot; parent=&quot;1&quot;&gt;&#xA;          &lt;mxGeometry x=&quot;581.4&quot; y=&quot;150&quot; width=&quot;67.2&quot; height=&quot;70&quot; as=&quot;geometry&quot; /&gt;&#xA;        &lt;/mxCell&gt;&#xA;        &lt;mxCell id=&quot;3wBLp1z6s1prBi4cRfZP-11&quot; value=&quot;&quot; style=&quot;html=1;shadow=0;dashed=0;align=center;verticalAlign=middle;shape=mxgraph.arrows2.arrow;dy=0.66;dx=31;direction=south;notch=0;fillColor=#fff2cc;strokeColor=#00B000;strokeWidth=1;&quot; vertex=&quot;1&quot; parent=&quot;1&quot;&gt;&#xA;          &lt;mxGeometry x=&quot;280&quot; y=&quot;230&quot; width=&quot;30&quot; height=&quot;60&quot; as=&quot;geometry&quot; /&gt;&#xA;        &lt;/mxCell&gt;&#xA;        &lt;mxCell id=&quot;3wBLp1z6s1prBi4cRfZP-12&quot; value=&quot;&quot; style=&quot;html=1;shadow=0;dashed=0;align=center;verticalAlign=middle;shape=mxgraph.arrows2.arrow;dy=0.66;dx=31;direction=south;notch=0;fillColor=#fff2cc;strokeColor=#00B000;strokeWidth=1;&quot; vertex=&quot;1&quot; parent=&quot;1&quot;&gt;&#xA;          &lt;mxGeometry x=&quot;600&quot; y=&quot;230&quot; width=&quot;30&quot; height=&quot;60&quot; as=&quot;geometry&quot; /&gt;&#xA;        &lt;/mxCell&gt;&#xA;      &lt;/root&gt;&#xA;    &lt;/mxGraphModel&gt;&#xA;  &lt;/diagram&gt;&#xA;&lt;/mxfile&gt;&#xA;"><defs/><g><g><rect x="0" y="91" width="200" height="120" fill="none" stroke="none" pointer-events="all"/></g><g><g transform="translate(-0.5 -0.5)"><switch><foreignObject style="overflow: visible; text-align: left;" pointer-events="none" width="100%" height="100%" requiredFeatures="http://www.w3.org/TR/SVG11/feature#Extensibility"><div xmlns="http://www.w3.org/1999/xhtml" style="display: flex; align-items: unsafe flex-start; justify-content: unsafe flex-start; width: 198px; height: 1px; padding-top: 98px; margin-left: 2px;"><div style="box-sizing: border-box; font-size: 0px; text-align: left; max-height: 116px; overflow: hidden;" data-drawio-colors="color: rgb(0, 0, 0); "><div style="display: inline-block; font-size: 12px; font-family: Helvetica; color: rgb(0, 0, 0); line-height: 1.2; pointer-events: all; white-space: normal; overflow-wrap: normal;"><h1 style="margin-top: 0px;">Texte original<br /></h1><p>Lorem ipsum dolor sit amet, consectetur adipisicing elit, sed do eiusmod tempor incididunt ut labore et dolore magna aliqua.</p></div></div></div></foreignObject><text x="2" y="110" fill="rgb(0, 0, 0)" font-family="Helvetica" font-size="12px">Texte original...</text></switch></g></g><g><rect x="328" y="91" width="200" height="120" fill="none" stroke="none" pointer-events="all"/></g><g><g transform="translate(-0.5 -0.5)"><switch><foreignObject style="overflow: visible; text-align: left;" pointer-events="none" width="100%" height="100%" requiredFeatures="http://www.w3.org/TR/SVG11/feature#Extensibility"><div xmlns="http://www.w3.org/1999/xhtml" style="display: flex; align-items: unsafe flex-start; justify-content: unsafe flex-start; width: 198px; height: 1px; padding-top: 98px; margin-left: 330px;"><div style="box-sizing: border-box; font-size: 0px; text-align: left; max-height: 116px; overflow: hidden;" data-drawio-colors="color: rgb(0, 0, 0); "><div style="display: inline-block; font-size: 12px; font-family: Helvetica; color: rgb(0, 0, 0); line-height: 1.2; pointer-events: all; white-space: normal; overflow-wrap: normal;"><h1 style="margin-top: 0px;">Texte chiffré<br /></h1><p>Gpsfnojqtvnoepmpsotjuobnfuaodp otfdufuvsobejqjtjdjohofmjuaotfeoepo fjvtnpeoufnqpsojodjejevouovuombc psfofuoepmpsfonbhobobmjrvbc'<br /></p></div></div></div></foreignObject><text x="330" y="110" fill="rgb(0, 0, 0)" font-family="Helvetica" font-size="12px">Texte chiffré...</text></switch></g></g><g><rect x="640" y="91" width="200" height="120" fill="none" stroke="none" pointer-events="all"/></g><g><g transform="translate(-0.5 -0.5)"><switch><foreignObject style="overflow: visible; text-align: left;" pointer-events="none" width="100%" height="100%" requiredFeatures="http://www.w3.org/TR/SVG11/feature#Extensibility"><div xmlns="http://www.w3.org/1999/xhtml" style="display: flex; align-items: unsafe flex-start; justify-content: unsafe flex-start; width: 198px; height: 1px; padding-top: 98px; margin-left: 642px;"><div style="box-sizing: border-box; font-size: 0px; text-align: left; max-height: 116px; overflow: hidden;" data-drawio-colors="color: rgb(0, 0, 0); "><div style="display: inline-block; font-size: 12px; font-family: Helvetica; color: rgb(0, 0, 0); line-height: 1.2; pointer-events: all; white-space: normal; overflow-wrap: normal;"><h1 style="margin-top: 0px;">Texte déchiffré</h1><h1 style="margin-top: 0px;"></h1><p>Lorem ipsum dolor sit amet, consectetur adipisicing elit, sed do eiusmod tempor incididunt ut labore et dolore magna aliqua.</p></div></div></div></foreignObject><text x="642" y="110" fill="rgb(0, 0, 0)" font-family="Helvetica" font-size="12px">Texte déchiffré...</text></switch></g></g><g><path d="M 200.5 156 L 200.5 146 L 300.5 146 L 300.5 135.5 L 319.5 151 L 300.5 166.5 L 300.5 156 Z" fill="#dae8fc" stroke="#6c8ebf" stroke-miterlimit="10" pointer-events="all"/></g><g><path d="M 520.5 155.5 L 520.5 145.5 L 620.5 145.5 L 620.5 135 L 639.5 150.5 L 620.5 166 L 620.5 155.5 Z" fill="#dae8fc" stroke="#6c8ebf" stroke-miterlimit="10" pointer-events="all"/></g><g><rect x="319" y="1" width="200" height="60" rx="9" ry="9" fill="#fff2cc" stroke="#00b000" stroke-width="2" pointer-events="all"/></g><g><g transform="translate(-0.5 -0.5)"><switch><foreignObject style="overflow: visible; text-align: left;" pointer-events="none" width="100%" height="100%" requiredFeatures="http://www.w3.org/TR/SVG11/feature#Extensibility"><div xmlns="http://www.w3.org/1999/xhtml" style="display: flex; align-items: unsafe center; justify-content: unsafe center; width: 198px; height: 1px; padding-top: 31px; margin-left: 320px;"><div style="box-sizing: border-box; font-size: 0px; text-align: center;" data-drawio-colors="color: rgb(0, 0, 0); "><div style="display: inline-block; font-size: 12px; font-family: Helvetica; color: rgb(0, 0, 0); line-height: 1.2; pointer-events: all; white-space: normal; overflow-wrap: normal;"><b><font face="Courier New" style="font-size: 24px;">Clé identique</font></b></div></div></div></foreignObject><text x="419" y="35" fill="rgb(0, 0, 0)" font-family="Helvetica" font-size="12px" text-anchor="middle">Clé identique</text></switch></g></g><g><image x="220.9" y="0.5" width="67.2" height="70" xlink:href="https://app.diagrams.net/img/lib/mscae/Key_Vaults.svg"/></g><g><image x="540.9" y="0.5" width="67.2" height="70" xlink:href="https://app.diagrams.net/img/lib/mscae/Key_Vaults.svg"/></g><g><path d="M 225 105.9 L 254 105.9 L 254 96 L 285 111 L 254 126 L 254 116.1 L 225 116.1 L 225 111 Z" fill="#fff2cc" stroke="#00b000" stroke-miterlimit="10" transform="rotate(90,255,111)" pointer-events="all"/></g><g><path d="M 545 105.9 L 574 105.9 L 574 96 L 605 111 L 574 126 L 574 116.1 L 545 116.1 L 545 111 Z" fill="#fff2cc" stroke="#00b000" stroke-miterlimit="10" transform="rotate(90,575,111)" pointer-events="all"/></g></g><switch><g requiredFeatures="http://www.w3.org/TR/SVG11/feature#Extensibility"/><a transform="translate(0,-5)" xlink:href="https://www.drawio.com/doc/faq/svg-export-text-problems" target="_blank"><text text-anchor="middle" font-size="10px" x="50%" y="100%">Text is not SVG - cannot display</text></a></switch></svg>