<?xml version="1.0" encoding="UTF-8"?>
<svg xmlns="http://www.w3.org/2000/svg" xmlns:xlink="http://www.w3.org/1999/xlink"
     width="376" height="376" viewBox="-8 -368 376 376">
<defs>
</defs>
<path d="M120,-240 L120,-220 L140,-220 L140,-260 L100,-260 L100,-240 Z" fill="yellow" stroke-width="2" stroke="black" />
<path d="M120,-200 L160,-200 L160,-240 L140,-240 L140,-220 L120,-220 Z" fill="green" stroke-width="2" stroke="black" />
<path d="M160,-240 L160,-220 L180,-220 L180,-260 L140,-260 L140,-240 Z" fill="yellow" stroke-width="2" stroke="black" />
<path d="M100,-180 L140,-180 L140,-200 L120,-200 L120,-220 L100,-220 Z" fill="red" stroke-width="2" stroke="black" />
<path d="M140,-180 L180,-180 L180,-220 L160,-220 L160,-200 L140,-200 Z" fill="green" stroke-width="2" stroke="black" />
<path d="M100,-260 L120,-260 L120,-280 L80,-280 L80,-240 L100,-240 Z" fill="blue" stroke-width="2" stroke="black" />
<path d="M80,-280 L100,-280 L100,-300 L60,-300 L60,-260 L80,-260 Z" fill="blue" stroke-width="2" stroke="black" />
<path d="M60,-300 L80,-300 L80,-320 L40,-320 L40,-280 L60,-280 Z" fill="blue" stroke-width="2" stroke="black" />
<path d="M40,-320 L60,-320 L60,-340 L20,-340 L20,-300 L40,-300 Z" fill="blue" stroke-width="2" stroke="black" />
<path d="M80,-320 L80,-300 L100,-300 L100,-340 L60,-340 L60,-320 Z" fill="yellow" stroke-width="2" stroke="black" />
<path d="M20,-260 L60,-260 L60,-280 L40,-280 L40,-300 L20,-300 Z" fill="red" stroke-width="2" stroke="black" />
<path d="M120,-280 L120,-260 L140,-260 L140,-300 L100,-300 L100,-280 Z" fill="yellow" stroke-width="2" stroke="black" />
<path d="M140,-300 L140,-280 L160,-280 L160,-320 L120,-320 L120,-300 Z" fill="yellow" stroke-width="2" stroke="black" />
<path d="M120,-320 L140,-320 L140,-340 L100,-340 L100,-300 L120,-300 Z" fill="blue" stroke-width="2" stroke="black" />
<path d="M160,-320 L160,-300 L180,-300 L180,-340 L140,-340 L140,-320 Z" fill="yellow" stroke-width="2" stroke="black" />
<path d="M140,-260 L180,-260 L180,-300 L160,-300 L160,-280 L140,-280 Z" fill="green" stroke-width="2" stroke="black" />
<path d="M60,-220 L100,-220 L100,-240 L80,-240 L80,-260 L60,-260 Z" fill="red" stroke-width="2" stroke="black" />
<path d="M40,-200 L80,-200 L80,-220 L60,-220 L60,-240 L40,-240 Z" fill="red" stroke-width="2" stroke="black" />
<path d="M40,-240 L60,-240 L60,-260 L20,-260 L20,-220 L40,-220 Z" fill="blue" stroke-width="2" stroke="black" />
<path d="M20,-180 L60,-180 L60,-200 L40,-200 L40,-220 L20,-220 Z" fill="red" stroke-width="2" stroke="black" />
<path d="M60,-180 L100,-180 L100,-220 L80,-220 L80,-200 L60,-200 Z" fill="green" stroke-width="2" stroke="black" />
<path d="M160,-160 L200,-160 L200,-200 L180,-200 L180,-180 L160,-180 Z" fill="green" stroke-width="2" stroke="black" />
<path d="M200,-200 L200,-180 L220,-180 L220,-220 L180,-220 L180,-200 Z" fill="yellow" stroke-width="2" stroke="black" />
<path d="M220,-220 L220,-200 L240,-200 L240,-240 L200,-240 L200,-220 Z" fill="yellow" stroke-width="2" stroke="black" />
<path d="M200,-240 L220,-240 L220,-260 L180,-260 L180,-220 L200,-220 Z" fill="blue" stroke-width="2" stroke="black" />
<path d="M240,-240 L240,-220 L260,-220 L260,-260 L220,-260 L220,-240 Z" fill="yellow" stroke-width="2" stroke="black" />
<path d="M220,-180 L260,-180 L260,-220 L240,-220 L240,-200 L220,-200 Z" fill="green" stroke-width="2" stroke="black" />
<path d="M260,-260 L260,-240 L280,-240 L280,-280 L240,-280 L240,-260 Z" fill="yellow" stroke-width="2" stroke="black" />
<path d="M240,-280 L260,-280 L260,-300 L220,-300 L220,-260 L240,-260 Z" fill="blue" stroke-width="2" stroke="black" />
<path d="M220,-300 L240,-300 L240,-320 L200,-320 L200,-280 L220,-280 Z" fill="blue" stroke-width="2" stroke="black" />
<path d="M200,-320 L220,-320 L220,-340 L180,-340 L180,-300 L200,-300 Z" fill="blue" stroke-width="2" stroke="black" />
<path d="M240,-320 L240,-300 L260,-300 L260,-340 L220,-340 L220,-320 Z" fill="yellow" stroke-width="2" stroke="black" />
<path d="M180,-260 L220,-260 L220,-280 L200,-280 L200,-300 L180,-300 Z" fill="red" stroke-width="2" stroke="black" />
<path d="M280,-280 L280,-260 L300,-260 L300,-300 L260,-300 L260,-280 Z" fill="yellow" stroke-width="2" stroke="black" />
<path d="M300,-300 L300,-280 L320,-280 L320,-320 L280,-320 L280,-300 Z" fill="yellow" stroke-width="2" stroke="black" />
<path d="M280,-320 L300,-320 L300,-340 L260,-340 L260,-300 L280,-300 Z" fill="blue" stroke-width="2" stroke="black" />
<path d="M320,-320 L320,-300 L340,-300 L340,-340 L300,-340 L300,-320 Z" fill="yellow" stroke-width="2" stroke="black" />
<path d="M300,-260 L340,-260 L340,-300 L320,-300 L320,-280 L300,-280 Z" fill="green" stroke-width="2" stroke="black" />
<path d="M260,-220 L300,-220 L300,-260 L280,-260 L280,-240 L260,-240 Z" fill="green" stroke-width="2" stroke="black" />
<path d="M280,-200 L320,-200 L320,-240 L300,-240 L300,-220 L280,-220 Z" fill="green" stroke-width="2" stroke="black" />
<path d="M320,-240 L320,-220 L340,-220 L340,-260 L300,-260 L300,-240 Z" fill="yellow" stroke-width="2" stroke="black" />
<path d="M260,-180 L300,-180 L300,-200 L280,-200 L280,-220 L260,-220 Z" fill="red" stroke-width="2" stroke="black" />
<path d="M300,-180 L340,-180 L340,-220 L320,-220 L320,-200 L300,-200 Z" fill="green" stroke-width="2" stroke="black" />
<path d="M140,-140 L180,-140 L180,-160 L160,-160 L160,-180 L140,-180 Z" fill="red" stroke-width="2" stroke="black" />
<path d="M120,-120 L160,-120 L160,-140 L140,-140 L140,-160 L120,-160 Z" fill="red" stroke-width="2" stroke="black" />
<path d="M120,-160 L140,-160 L140,-180 L100,-180 L100,-140 L120,-140 Z" fill="blue" stroke-width="2" stroke="black" />
<path d="M100,-100 L140,-100 L140,-120 L120,-120 L120,-140 L100,-140 Z" fill="red" stroke-width="2" stroke="black" />
<path d="M140,-100 L180,-100 L180,-140 L160,-140 L160,-120 L140,-120 Z" fill="green" stroke-width="2" stroke="black" />
<path d="M80,-80 L120,-80 L120,-100 L100,-100 L100,-120 L80,-120 Z" fill="red" stroke-width="2" stroke="black" />
<path d="M80,-120 L100,-120 L100,-140 L60,-140 L60,-100 L80,-100 Z" fill="blue" stroke-width="2" stroke="black" />
<path d="M60,-140 L80,-140 L80,-160 L40,-160 L40,-120 L60,-120 Z" fill="blue" stroke-width="2" stroke="black" />
<path d="M40,-160 L60,-160 L60,-180 L20,-180 L20,-140 L40,-140 Z" fill="blue" stroke-width="2" stroke="black" />
<path d="M80,-160 L80,-140 L100,-140 L100,-180 L60,-180 L60,-160 Z" fill="yellow" stroke-width="2" stroke="black" />
<path d="M20,-100 L60,-100 L60,-120 L40,-120 L40,-140 L20,-140 Z" fill="red" stroke-width="2" stroke="black" />
<path d="M60,-60 L100,-60 L100,-80 L80,-80 L80,-100 L60,-100 Z" fill="red" stroke-width="2" stroke="black" />
<path d="M40,-40 L80,-40 L80,-60 L60,-60 L60,-80 L40,-80 Z" fill="red" stroke-width="2" stroke="black" />
<path d="M40,-80 L60,-80 L60,-100 L20,-100 L20,-60 L40,-60 Z" fill="blue" stroke-width="2" stroke="black" />
<path d="M20,-20 L60,-20 L60,-40 L40,-40 L40,-60 L20,-60 Z" fill="red" stroke-width="2" stroke="black" />
<path d="M60,-20 L100,-20 L100,-60 L80,-60 L80,-40 L60,-40 Z" fill="green" stroke-width="2" stroke="black" />
<path d="M100,-60 L140,-60 L140,-100 L120,-100 L120,-80 L100,-80 Z" fill="green" stroke-width="2" stroke="black" />
<path d="M120,-40 L160,-40 L160,-80 L140,-80 L140,-60 L120,-60 Z" fill="green" stroke-width="2" stroke="black" />
<path d="M160,-80 L160,-60 L180,-60 L180,-100 L140,-100 L140,-80 Z" fill="yellow" stroke-width="2" stroke="black" />
<path d="M100,-20 L140,-20 L140,-40 L120,-40 L120,-60 L100,-60 Z" fill="red" stroke-width="2" stroke="black" />
<path d="M140,-20 L180,-20 L180,-60 L160,-60 L160,-40 L140,-40 Z" fill="green" stroke-width="2" stroke="black" />
<path d="M180,-140 L220,-140 L220,-180 L200,-180 L200,-160 L180,-160 Z" fill="green" stroke-width="2" stroke="black" />
<path d="M200,-120 L240,-120 L240,-160 L220,-160 L220,-140 L200,-140 Z" fill="green" stroke-width="2" stroke="black" />
<path d="M240,-160 L240,-140 L260,-140 L260,-180 L220,-180 L220,-160 Z" fill="yellow" stroke-width="2" stroke="black" />
<path d="M180,-100 L220,-100 L220,-120 L200,-120 L200,-140 L180,-140 Z" fill="red" stroke-width="2" stroke="black" />
<path d="M220,-100 L260,-100 L260,-140 L240,-140 L240,-120 L220,-120 Z" fill="green" stroke-width="2" stroke="black" />
<path d="M240,-80 L280,-80 L280,-120 L260,-120 L260,-100 L240,-100 Z" fill="green" stroke-width="2" stroke="black" />
<path d="M280,-120 L280,-100 L300,-100 L300,-140 L260,-140 L260,-120 Z" fill="yellow" stroke-width="2" stroke="black" />
<path d="M300,-140 L300,-120 L320,-120 L320,-160 L280,-160 L280,-140 Z" fill="yellow" stroke-width="2" stroke="black" />
<path d="M280,-160 L300,-160 L300,-180 L260,-180 L260,-140 L280,-140 Z" fill="blue" stroke-width="2" stroke="black" />
<path d="M320,-160 L320,-140 L340,-140 L340,-180 L300,-180 L300,-160 Z" fill="yellow" stroke-width="2" stroke="black" />
<path d="M300,-100 L340,-100 L340,-140 L320,-140 L320,-120 L300,-120 Z" fill="green" stroke-width="2" stroke="black" />
<path d="M220,-60 L260,-60 L260,-80 L240,-80 L240,-100 L220,-100 Z" fill="red" stroke-width="2" stroke="black" />
<path d="M200,-40 L240,-40 L240,-60 L220,-60 L220,-80 L200,-80 Z" fill="red" stroke-width="2" stroke="black" />
<path d="M200,-80 L220,-80 L220,-100 L180,-100 L180,-60 L200,-60 Z" fill="blue" stroke-width="2" stroke="black" />
<path d="M180,-20 L220,-20 L220,-40 L200,-40 L200,-60 L180,-60 Z" fill="red" stroke-width="2" stroke="black" />
<path d="M220,-20 L260,-20 L260,-60 L240,-60 L240,-40 L220,-40 Z" fill="green" stroke-width="2" stroke="black" />
<path d="M260,-60 L300,-60 L300,-100 L280,-100 L280,-80 L260,-80 Z" fill="green" stroke-width="2" stroke="black" />
<path d="M280,-40 L320,-40 L320,-80 L300,-80 L300,-60 L280,-60 Z" fill="green" stroke-width="2" stroke="black" />
<path d="M320,-80 L320,-60 L340,-60 L340,-100 L300,-100 L300,-80 Z" fill="yellow" stroke-width="2" stroke="black" />
<path d="M260,-20 L300,-20 L300,-40 L280,-40 L280,-60 L260,-60 Z" fill="red" stroke-width="2" stroke="black" />
<path d="M300,-20 L340,-20 L340,-60 L320,-60 L320,-40 L300,-40 Z" fill="green" stroke-width="2" stroke="black" />
<path d="M100,-220 L120,-220 L120,-240 L100,-240 Z" fill="black" stroke-width="2" stroke="black" />
</svg>